<?xml version="1.0" encoding="UTF-8"?>
<kml xmlns="http://www.opengis.net/kml/2.2" xmlns:gx="http://www.google.com/kml/ext/2.2" xmlns:kml="http://www.opengis.net/kml/2.2" xmlns:atom="http://www.w3.org/2005/Atom">
<Document>
	<name>savedalsloppet-2km.kml</name>
	<StyleMap id="yellowLineGreenPoly1">
		<Pair>
			<key>normal</key>
			<styleUrl>#yellowLineGreenPoly</styleUrl>
		</Pair>
		<Pair>
			<key>highlight</key>
			<styleUrl>#yellowLineGreenPoly0</styleUrl>
		</Pair>
	</StyleMap>
	<Style id="yellowLineGreenPoly">
		<IconStyle>
			<Icon>
			</Icon>
		</IconStyle>
		<ListStyle>
		</ListStyle>
		<LineStyle>
			<color>fffffaf8</color>
		</LineStyle>
		<PolyStyle>
			<color>7f00ff00</color>
		</PolyStyle>
	</Style>
	<Style id="yellowLineGreenPoly0">
		<IconStyle>
			<Icon>
			</Icon>
		</IconStyle>
		<ListStyle>
		</ListStyle>
		<LineStyle>
			<color>fffffaf8</color>
		</LineStyle>
		<PolyStyle>
			<color>7f00ff00</color>
		</PolyStyle>
	</Style>
	<Folder>
		<name>Sävedalsloppet 2km</name>
		<visibility>0</visibility>
		<description>Sävedalsloppet 2km</description>
		<Placemark>
			<name>2km</name>
			<visibility>0</visibility>
			<styleUrl>#yellowLineGreenPoly1</styleUrl>
			<LineString>
				<tessellate>1</tessellate>
				<coordinates>
					12.07975805129763,57.72548447838263,0 12.07849584396543,57.72524225600074,0 12.07829898787513,57.72513063687978,0 12.07822884670006,57.72499055003016,0 12.07826486953997,57.72488195257301,0 12.07856394638408,57.72455206709503,0 12.07845080188295,57.72445131944867,0 12.07798975090512,57.72434865668892,0 12.07787952049274,57.72405316359363,0 12.07783734450362,57.7238190259143,0 12.07786980253262,57.72355559591653,0 12.07807030337591,57.72306256804406,0 12.07812567156319,57.72304617653844,0 12.08005261353717,57.7233570623053,0 12.08029886549176,57.7234034039076,0 12.08054603219282,57.72346465393468,0 12.08066041152027,57.72351969010585,0 12.080801478638,57.72355967898027,0 12.0811203370927,57.72360154935947,0 12.08165076173051,57.72369581889715,0 12.08199189201383,57.72377804282596,0 12.08204147754715,57.72381409268439,0 12.08204004239821,57.7238561512525,0 12.08087191618547,57.72532962129248,0 12.08048911625548,57.72570020048571,0 12.08039789660962,57.72573975881944,0 12.08034624632777,57.72573290219773,0 12.07989456215533,57.72567221098868,0 12.0796721552954,57.7256959475883,0 12.0796369112697,57.72567718601033,0 12.07952035834477,57.7255928125254,0 12.07889985356481,57.72545027933542,0 12.07847758055757,57.72536816379722,0 12.07829005709909,57.72532399102385,0 12.07817357466919,57.72526640446457,0 12.07809183112657,57.72516237233473,0 12.0781070674211,57.72474561219028,0 12.07807691914772,57.72464033383125,0 12.07807800132455,57.72447989500461,0 12.0779960144203,57.7243748909973,0 12.07793451562525,57.72431574434644,0 12.07788783466513,57.72424273036468,0 12.07785764957724,57.72411450709399,0 12.07781333127911,57.72396414609387,0 12.07780100376672,57.72384002406699,0 12.07780304619297,57.72374165085608,0 12.07781058224311,57.72361782167665,0 12.07783838064733,57.72351289260063,0 12.07787958525006,57.72342474352975,0 12.07792618309368,57.72329734342012,0 12.07796252888196,57.72317412486426,0 12.07801192095909,57.72307473891372,0 12.0780569384554,57.72303403674612,0 12.07816256978141,57.72303291244248,0 12.0785300759043,57.72309159377033,0 12.0794989412143,57.72324867132662,0 12.08009673594548,57.72333892560558,0 12.08038920942947,57.72340337239242,0 12.08060469891686,57.72346071918327,0 12.08070403760346,57.72350862520652,0 12.08079243867078,57.72353635274326,0 12.08105729160365,57.72357644059099,0 12.08130746182936,57.72361660199904,0 12.08155040311345,57.72366564784622,0 12.08184374896964,57.72371933670934,0 12.08202547390676,57.72376826819377,0 12.08208259779512,57.72381302390123,0 12.08207857226053,57.72387922782709,0 12.08128341910845,57.72489161351938,0 12.08089840450191,57.72535968730912,0 12.08065217542593,57.72558846716939,0 12.0804792610566,57.72573828736407,0 12.08033592838869,57.72577126480257,0 12.08005500214206,57.72572086045079,0 12.07990701671343,57.72571104518273,0 12.07986525697694,57.72570104078501,0 12.07971770251148,57.72571202835852,0 12.0795852001728,57.72568026730978,0 12.07951793617734,57.72562809600836,0 12.07938498010571,57.72557664429087,0 12.07831331492505,57.72535469378111,0 12.07818168967937,57.72531358786684,0 12.07808161279157,57.72521961157461,0 12.0780383991319,57.72512956629976,0 12.07805373353085,57.72482794789937,0 12.07805185998082,57.72470913175234,0 12.07802755215862,57.7246240304956,0 12.0780071542966,57.7245361707924,0 12.07801544794112,57.72446967957199,0 12.07809898064547,57.72441708174298,0 12.07838993977834,57.72445659711646,0 12.07865927082634,57.72454424648958,0 12.07929497733327,57.72464622672587,0 12.08002649226588,57.72477369285607,0 12.08005073526143,57.72480176662499,0 
				</coordinates>
			</LineString>
		</Placemark>
	</Folder>
</Document>
</kml>
